Place,Name,Sex,Event,Division,WeightClassKg,Equipment,BirthYear,State,BodyweightKg,Squat1Kg,Squat2Kg,Squat3Kg,Best3SquatKg,Bench1Kg,Bench2Kg,Bench3Kg,Best3BenchKg,Deadlift1Kg,Deadlift2Kg,Deadlift3Kg,Best3DeadliftKg,TotalKg,Age,BirthDate
1,Ana Sanchez,F,SBD,FR-Jr,56,Raw,2000,NJ,54.8,87.5,97.5,100,100,55,60,65,65,110,125,127.5,127.5,292.5,,
1,Alonna Gliksman,F,SBD,FR-Jr,60,Raw,2001,NJ,58.6,120,127.5,-135,127.5,80,-90,-90,80,155,162.5,-170,162.5,370,,
2,Andrea Peralta,F,SBD,FR-Jr,60,Raw,2003,NJ,59.7,125,-130,130,130,65,70,75,75,130,145,-152.5,145,350,,
3,Sarah Gunther,F,SBD,FR-Jr,60,Raw,2002,NJ,58.5,-100,-100,100,100,55,60,-62.5,60,105,110,112.5,112.5,272.5,,
1,Anjyl Hwang,F,SBD,FR-Jr,75,Raw,2003,NJ,74.4,147.5,160,-170,160,72.5,77.5,80,80,142.5,160,-165,160,400,,
1,Jaime Orola,F,SBD,FR-M1,52,Raw,1980,NJ,50.4,75,80,82.5,82.5,-50,50,-55,50,102.5,112.5,-117.5,112.5,245,,
1,Jacqueline Thompson,F,SBD,FR-M1,100+,Raw,1981,NJ,107.7,167.5,170,182.5,182.5,82.5,87.5,-97.5,87.5,177.5,182.5,190,190,460,,
1,Shara Kaplan,F,SBD,FR-M1,67.5,Raw,1979,NJ,66.7,80,87.5,92.5,92.5,60,65,-70,65,127.5,135,-140,135,292.5,,
1,Lyndia Hayes,F,SBD,FR-M2,56,Raw,1970,NJ,53.9,-97.5,-97.5,97.5,97.5,50,52.5,-55,52.5,117.5,120,127.5,127.5,277.5,,
1,Leslie Kornsgold,F,SBD,FR-M2,67.5,Raw,1967,NJ,66.7,85,90,95,95,52.5,55,-57.5,55,105,110,115,115,265,,
1,Bonnie Triolo,F,SBD,FR-M3,56,Raw,1955,NJ,55.7,55,60,62.5,62.5,40,42.5,-45,42.5,87.5,95,-100,95,200,,
1,Jaime Orola,F,SBD,FR-O,52,Raw,1980,NJ,50.4,75,80,82.5,82.5,-50,50,-55,50,102.5,112.5,-117.5,112.5,245,,
1,Ana Sanchez,F,SBD,FR-O,56,Raw,2000,NJ,54.8,87.5,97.5,100,100,55,60,65,65,110,125,127.5,127.5,292.5,,
2,Lyndia Hayes,F,SBD,FR-O,56,Raw,1970,NJ,53.9,-97.5,-97.5,97.5,97.5,50,52.5,-55,52.5,117.5,120,127.5,127.5,277.5,,
1,Alonna Gliksman,F,SBD,FR-O,60,Raw,2001,NJ,58.6,120,127.5,-135,127.5,80,-90,-90,80,155,162.5,-170,162.5,370,,
2,Sarah Gunther,F,SBD,FR-O,60,Raw,2002,NJ,58.5,-100,-100,100,100,55,60,-62.5,60,105,110,112.5,112.5,272.5,,
1,Anjyl Hwang,F,SBD,FR-O,75,Raw,2003,NJ,74.4,147.5,160,-170,160,72.5,77.5,80,80,142.5,160,-165,160,400,,
2,Zsofia Toth,F,SBD,FR-O,75,Raw,2006,NJ,73.9,120,130,140,140,65,70,75,75,150,160,172.5,172.5,387.5,,
3,Casey Alderete,F,SBD,FR-O,75,Raw,1998,NJ,71.8,135,145,152.5,152.5,60,65,70,70,137.5,147.5,155,155,377.5,,
4,Katie Tobias,F,SBD,FR-O,75,Raw,2004,NJ,73.9,112.5,122.5,-130,122.5,62.5,70,72.5,72.5,117.5,127.5,-137.5,127.5,322.5,,
1,Jacqueline Thompson,F,SBD,FR-O,100+,Raw,1981,NJ,107.7,167.5,170,182.5,182.5,82.5,87.5,-97.5,87.5,177.5,182.5,190,190,460,,
2,Perisa Azhir,F,SBD,FR-O,100+,Raw,1989,NJ,109.6,135,142.5,150,150,82.5,87.5,-92.5,87.5,132.5,142.5,150,150,387.5,,
1,Francesca Formisano,F,SBD,FR-O,67.5,Raw,1996,NJ,67.2,127.5,-137.5,-137.5,127.5,62.5,67.5,75,75,145,157.5,160,160,362.5,,
2,Shara Kaplan,F,SBD,FR-O,67.5,Raw,1979,NJ,66.7,80,87.5,92.5,92.5,60,65,-70,65,127.5,135,-140,135,292.5,,
1,Rosabel Del Sol,F,SBD,FR-O,82.5,Raw,1998,NJ,80.5,142.5,150,155,155,77.5,82.5,85,85,150,-160,-160,150,390,,
2,Cassandra Grullon,F,SBD,FR-O,82.5,Raw,1993,NJ,79.3,117.5,130,140,140,55,57.5,62.5,62.5,140,147.5,152.5,152.5,355,,
1,Zsofia Toth,F,SBD,FR-T2,75,Raw,2006,NJ,73.9,120,130,140,140,65,70,75,75,150,160,172.5,172.5,387.5,,
1,Myarose Arvelo,F,SBD,FR-T2,67.5,Raw,2007,NJ,64.2,-102.5,102.5,110,110,35,40,42.5,42.5,105,107.5,112.5,112.5,265,,
1,Gina Galiszewski,F,SBD,FR-T3,75,Raw,2004,NJ,73.4,130,-137.5,142.5,142.5,80,85,90,90,145,160,167.5,167.5,400,,
2,Katie Tobias,F,SBD,FR-T3,75,Raw,2004,NJ,73.9,112.5,122.5,-130,122.5,62.5,70,72.5,72.5,117.5,127.5,-137.5,127.5,322.5,,
1,James Sipe,M,SBD,MR-Jr,60,Raw,2001,NJ,58.6,105,112.5,117.5,117.5,47.5,55,60,60,142.5,155,167.5,167.5,345,,
1,James Hessemer,M,SBD,MR-Jr,75,Raw,2001,NJ,73.9,175,195,-205,195,100,107.5,110,110,-205,220,-227.5,220,525,,
2,Luis Robles,M,SBD,MR-Jr,75,Raw,2003,NJ,74.2,-192.5,192.5,-205,192.5,117.5,-125,-125,117.5,197.5,207.5,212.5,212.5,522.5,,
1,Jason Portillo,M,SBD,MR-Jr,90,Raw,2002,NJ,87.2,210,220,227.5,227.5,122.5,127.5,130,130,215,230,-240,230,587.5,,
2,Jake Leroux,M,SBD,MR-Jr,90,Raw,2002,NJ,87.4,-205,205,-220,205,122.5,-125,,122.5,-230,237.5,247.5,247.5,575,,
3,Joel Dominguez,M,SBD,MR-Jr,90,Raw,2003,NJ,87.6,175,185,195,195,132.5,140,145,145,207.5,220,225,225,565,,
4,Brian Elizalde,M,SBD,MR-Jr,90,Raw,2001,NJ,88.3,195,205,-207.5,205,120,-130,-130,120,225,235,240,240,565,,
5,Aidan Gold,M,SBD,MR-Jr,90,Raw,2002,NJ,90,190,200,-212.5,200,105,115,120,120,195,210,-227.5,210,530,,
1,Renaldo Robinson,M,SBD,MR-Jr,100,Raw,2001,NJ,95.3,255,267.5,277.5,277.5,157.5,165,170,170,275,290,,290,737.5,,
2,Aman Shah,M,SBD,MR-Jr,100,Raw,2000,NJ,97.2,145,160,-165,160,75,-85,-85,75,180,197.5,200,200,435,,
1,Mick Estiler,M,SBD,MR-Jr,67.5,Raw,2001,NJ,66.5,140,147.5,-155,147.5,92.5,97.5,-102.5,97.5,195,205,210,210,455,,
1,Nicolas Cardenas,M,SBD,MR-Jr,82.5,Raw,2001,NJ,80.1,215,230,-245,230,115,122.5,127.5,127.5,245,260,-272.5,260,617.5,,
2,Sebastian Blasi,M,SBD,MR-Jr,82.5,Raw,2002,NJ,81.5,180,202.5,-207.5,202.5,120,130,132.5,132.5,215,230,245,245,580,,
3,Christian Lapid,M,SBD,MR-Jr,82.5,Raw,2002,NJ,79.9,-190,190,202.5,202.5,117.5,122.5,127.5,127.5,195,220,-227.5,220,550,,
4,Kelvin Paez,M,SBD,MR-Jr,82.5,Raw,2000,NJ,81.5,175,185,,185,112.5,120,125,125,212.5,230,-242.5,230,540,,
1,Thomas Roesinger,M,SBD,MR-M1,90,Raw,1982,NJ,86.7,177.5,-185,185,185,-132.5,132.5,-137.5,132.5,237.5,242.5,245,245,562.5,,
1,Ted Rasmussen,M,SBD,MR-M1,67.5,Raw,1980,NJ,66,150,160,167.5,167.5,90,95,-100,95,187.5,197.5,205,205,467.5,,
1,Robert Lopez,M,SBD,MR-M2,90,Raw,1972,NJ,89.1,142.5,-152.5,152.5,152.5,130,135,140,140,180,190,195,195,487.5,,
DQ,Daniel DeBenedetto,M,SBD,MR-M2,125,Raw,1964,NJ,116.1,-230,-230,,,,,,,,,,,,,
DQ,Mark Salandra,M,SBD,MR-M3,90,Raw,1962,NJ,86.7,,,,,100,105,110,110,,,,,,,
1,Julian Topacio,M,SBD,MR-O,60,Raw,2003,NJ,56.2,160,170,180,180,92.5,97.5,102.5,102.5,165,177.5,190,190,472.5,,
2,James Sipe,M,SBD,MR-O,60,Raw,2001,NJ,58.6,105,112.5,117.5,117.5,47.5,55,60,60,142.5,155,167.5,167.5,345,,
1,Joshua Demarco,M,SBD,MR-O,75,Raw,2004,NJ,75,182.5,190,192.5,192.5,115,122.5,-125,122.5,235,250,-260,250,565,,
2,Von Schneider Israel,M,SBD,MR-O,75,Raw,1995,NJ,73.4,175,192.5,-202.5,192.5,-110,115,125,125,197.5,210,225,225,542.5,,
3,Joseph Criscio,M,SBD,MR-O,75,Raw,1993,NJ,70.4,152.5,165,177.5,177.5,110,115,-120,115,182.5,187.5,-190,187.5,480,,
1,Edwin Ortega,M,SBD,MR-O,90,Raw,1996,NJ,85.4,207.5,217.5,230,230,-160,160,170,170,255,272.5,282.5,282.5,682.5,,
2,Orlando Sanabria,M,SBD,MR-O,90,Raw,1994,NJ,85.9,205,217.5,227.5,227.5,120,130,137.5,137.5,205,220,232.5,232.5,597.5,,
3,Christopher Au,M,SBD,MR-O,90,Raw,1999,NJ,86.8,205,215,222.5,222.5,135,142.5,145,145,230,-240,-250,230,597.5,,
4,Jason Portillo,M,SBD,MR-O,90,Raw,2002,NJ,87.2,210,220,227.5,227.5,122.5,127.5,130,130,215,230,-240,230,587.5,,
5,Brian Elizalde,M,SBD,MR-O,90,Raw,2001,NJ,88.3,195,205,-207.5,205,120,-130,-130,120,225,235,240,240,565,,
6,Thomas Roesinger,M,SBD,MR-O,90,Raw,1982,NJ,86.7,177.5,-185,185,185,-132.5,132.5,-137.5,132.5,237.5,242.5,245,245,562.5,,
7,Joel Martinez,M,SBD,MR-O,90,Raw,1994,NJ,88.9,180,192.5,200,200,127.5,135,140,140,190,205,215,215,555,,
1,Ronald Beadling,M,SBD,MR-O,100,Raw,1989,NJ,94.8,260,-275,275,275,152.5,-162.5,167.5,167.5,245,257.5,265,265,707.5,,
2,Brandon Cruz,M,SBD,MR-O,100,Raw,1997,NJ,98.2,-245,-255,255,255,125,130,132.5,132.5,245,255,-265,255,642.5,,
3,Joseph Biondi,M,SBD,MR-O,100,Raw,1998,NJ,98,-200,-205,205,205,125,132.5,137.5,137.5,240,250,255,255,597.5,,
1,Samuel Caivano,M,SBD,MR-O,110,Raw,1993,NJ,109.8,242.5,252.5,260,260,-145,155,165,165,237.5,247.5,-252.5,247.5,672.5,,
2,Dominique Smith #4,M,SBD,MR-O,110,Raw,1988,NJ,107.8,205,-210,-210,205,-140,145,147.5,147.5,260,272.5,-280,272.5,625,,
3,Matthew Gilmore,M,SBD,MR-O,110,Raw,1990,NJ,106.4,182.5,192.5,200,200,135,142.5,145,145,212.5,227.5,237.5,237.5,582.5,,
1,Brandon Miral,M,SBD,MR-O,125,Raw,2003,NJ,120.9,210,220,227.5,227.5,97.5,107.5,112.5,112.5,195,207.5,217.5,217.5,557.5,,
1,Christian Lapid,M,SBD,MR-O,82.5,Raw,2002,NJ,79.9,-190,190,202.5,202.5,117.5,122.5,127.5,127.5,195,220,-227.5,220,550,,
2,Dylan Mitchell,M,SBD,MR-O,82.5,Raw,2006,NJ,81.2,167.5,177.5,185,185,95,-97.5,-97.5,95,-197.5,202.5,210,210,490,,
1,Jason Marroquin,M,SBD,MR-T1,75,Raw,2009,NJ,72.5,135,142.5,-152.5,142.5,95,102.5,-110,102.5,157.5,170,180,180,425,,
1,Matt Wicks,M,SBD,MR-T2,75,Raw,2006,NJ,68.6,177.5,192.5,-202.5,192.5,97.5,-102.5,102.5,102.5,180,200,215,215,510,,
1,Alexander Riba,M,SBD,MR-T2,100,Raw,2006,NJ,99.2,215,227.5,-235,227.5,135,145,152.5,152.5,220,235,-250,235,615,,
1,Sebastian Rosete,M,SBD,MR-T2,125,Raw,2006,NJ,115.6,195,202.5,210,210,80,85,-90,85,205,215,-222.5,215,510,,
1,Dylan Mitchell,M,SBD,MR-T2,82.5,Raw,2006,NJ,81.2,167.5,177.5,185,185,95,-97.5,-97.5,95,-197.5,202.5,210,210,490,,
1,Joshua Demarco,M,SBD,MR-T3,75,Raw,2004,NJ,75,182.5,190,192.5,192.5,115,122.5,-125,122.5,235,250,-260,250,565,,
2,Jayden Curbelo,M,SBD,MR-T3,75,Raw,2004,NJ,74.3,-155,-162.5,162.5,162.5,85,92.5,-95,92.5,195,207.5,-210,207.5,462.5,,
1,Maximiliano Tolosa,M,SBD,MR-T3,67.5,Raw,2004,NJ,62.8,147.5,157.5,165,165,87.5,92.5,95,95,167.5,177.5,-187.5,177.5,437.5,,
2,Nikolas Rasmussen,M,SBD,MR-T3,67.5,Raw,2004,NJ,66.8,107.5,112.5,122.5,122.5,62.5,65,70,70,165,175,187.5,187.5,380,,
1,Xander Marshall,M,SBD,MR-T3,82.5,Raw,2004,NJ,81,175,185,-195,185,-117.5,117.5,120,120,205,215,220,220,525,,
